altair_linegraph • newprojdata303
…
import altair as alt
import pandas as pd

Some brief data tidying

countries <- c(
  "Kenya", "Uganda", "Eritrea",
  "Ethiopia", "Djibouti", "Somalia",
  "Rwanda", "Tanzania", "Burundi")

east_africa_pop <- gapminder |>
  filter(country %in% countries)
east_africa_pop
#> # A tibble: 108 × 6
#>    country continent  year lifeExp     pop gdpPercap
#>    <fct>   <fct>     <int>   <dbl>   <int>     <dbl>
#>  1 Burundi Africa     1952    39.0 2445618      339.
#>  2 Burundi Africa     1957    40.5 2667518      380.
#>  3 Burundi Africa     1962    42.0 2961915      355.
#>  4 Burundi Africa     1967    43.5 3330989      413.
#>  5 Burundi Africa     1972    44.1 3529983      464.
#>  6 Burundi Africa     1977    45.9 3834415      556.
#>  7 Burundi Africa     1982    47.5 4580410      560.
#>  8 Burundi Africa     1987    48.2 5126023      622.
#>  9 Burundi Africa     1992    44.7 5809236      632.
#> 10 Burundi Africa     1997    45.3 6121610      463.
#> # ℹ 98 more rows
…
